%YAML 1.1
%TAG !u! tag:unity3d.com,2011:
--- !u!21 &2100000
Material:
  serializedVersion: 6
  m_ObjectHideFlags: 0
  m_CorrespondingSourceObject: {fileID: 0}
  m_PrefabInstance: {fileID: 0}
  m_PrefabAsset: {fileID: 0}
  m_Name: Soldier_body1_SimpleSurfaceShader
  m_Shader: {fileID: 4800000, guid: f261805007c4b8242a362705f47d3ac4, type: 3}
  m_ShaderKeywords: 
  m_LightmapFlags: 4
  m_EnableInstancingVariants: 0
  m_DoubleSidedGI: 0
  m_CustomRenderQueue: -1
  stringTagMap: {}
  disabledShaderPasses: []
  m_SavedProperties:
    serializedVersion: 3
    m_TexEnvs:
    - _ASD:
        m_Texture: {fileID: 0}
        m_Scale: {x: 1, y: 1}
        m_Offset: {x: 0, y: 0}
    - _BumpMap:
        m_Texture: {fileID: 2800000, guid: 5c0327f3070f7f547aa6232b09f12f2b, type: 3}
        m_Scale: {x: 1, y: 1}
        m_Offset: {x: 0, y: 0}
    - _Cube:
        m_Texture: {fileID: 0}
        m_Scale: {x: 1, y: 1}
        m_Offset: {x: 0, y: 0}
    - _Detail:
        m_Texture: {fileID: 10309, guid: 0000000000000000f000000000000000, type: 0}
        m_Scale: {x: 30, y: 30}
        m_Offset: {x: 0, y: 0}
    - _DetailTex:
        m_Texture: {fileID: 10309, guid: 0000000000000000f000000000000000, type: 0}
        m_Scale: {x: 1, y: 1}
        m_Offset: {x: 0, y: 0}
    - _MainTex:
        m_Texture: {fileID: 2800000, guid: 9d4e2510d772f0d4e9c0a445a3c26f4b, type: 3}
        m_Scale: {x: 1, y: 1}
        m_Offset: {x: 0, y: 0}
    - _Normal:
        m_Texture: {fileID: 2800000, guid: 5c0327f3070f7f547aa6232b09f12f2b, type: 3}
        m_Scale: {x: 1, y: 1}
        m_Offset: {x: 0, y: 0}
    - _asd:
        m_Texture: {fileID: 2800000, guid: 5c0327f3070f7f547aa6232b09f12f2b, type: 3}
        m_Scale: {x: 1, y: 1}
        m_Offset: {x: 0, y: 0}
    - _normal:
        m_Texture: {fileID: 2800000, guid: 5c0327f3070f7f547aa6232b09f12f2b, type: 3}
        m_Scale: {x: 1, y: 1}
        m_Offset: {x: 0, y: 0}
    m_Floats:
    - _IsBumpMapEnabled: 0
    - _IsCubeEnabled: 0
    - _IsDetailEnabled: 0
    - _IsDetailTexEnabled: 0.011
    - _IsNormalEnabled: 0.017
    - _IsRimEnabled: 0.007
    - _IsScreenSpaceDetailEnabled: 0.022
    - _RimPower: 8
    m_Colors:
    - _RimColor: {r: 0.9716981, g: 0.022917405, b: 0.6649461, a: 0}
  m_BuildTextureStacks: []
