%YAML 1.1
%TAG !u! tag:unity3d.com,2011:
--- !u!21 &2100000
Material:
  serializedVersion: 6
  m_ObjectHideFlags: 0
  m_CorrespondingSourceObject: {fileID: 0}
  m_PrefabInstance: {fileID: 0}
  m_PrefabAsset: {fileID: 0}
  m_Name: Soldier_body1_SliceSurfaceShader
  m_Shader: {fileID: 4800000, guid: f14bddef359a70d488685f9f9b87934c, type: 3}
  m_ShaderKeywords: 
  m_LightmapFlags: 4
  m_EnableInstancingVariants: 0
  m_DoubleSidedGI: 0
  m_CustomRenderQueue: -1
  stringTagMap: {}
  disabledShaderPasses: []
  m_SavedProperties:
    serializedVersion: 3
    m_TexEnvs:
    - _BumpMap:
        m_Texture: {fileID: 2800000, guid: 5c0327f3070f7f547aa6232b09f12f2b, type: 3}
        m_Scale: {x: 1, y: 1}
        m_Offset: {x: 0, y: 0}
    - _MainTex:
        m_Texture: {fileID: 2800000, guid: 9d4e2510d772f0d4e9c0a445a3c26f4b, type: 3}
        m_Scale: {x: 1, y: 1}
        m_Offset: {x: 0, y: 0}
    m_Floats:
    - _SliceFrequency: 4.96
    - _SliceFrequencyX: 0
    - _SliceFrequencyY: 5
    - _SliceFrequencyZ: 0
    - _SlicePercentageCutoff: 0.5
    m_Colors: []
  m_BuildTextureStacks: []
